{
  "version": "1.0.0-*",

  "dependencies": {
    "NETStandard.Library": "1.6.0",
    "System.Data.Common": "4.1.0",
    "VoyageMe.Common": "1.0.0-*"
  },

  "frameworks": {
    "netstandard1.6": {
      "imports": "dnxcore50"
    }
  }
}
