{
  "version": "1.0.0-*",

  "dependencies": {
    "NETStandard.Library": "1.6.0",
    "VoyageMe.BLL.Abstract": "1.0.0-*",
    "VoyageMe.DAL.Abstract": "1.0.0-*"
  },

  "frameworks": {
    "netstandard1.6": {
      "imports": "dnxcore50"
    }
  }
}
